{
  "file_generated_by": "FlutterFire CLI",
  "purpose": "FirebaseAppID & ProjectID for this Firebase app in this directory",
  "GOOGLE_APP_ID": "1:357671764956:ios:56c2aba72d227e14fa4519",
  "FIREBASE_PROJECT_ID": "lgorehal",
  "GCM_SENDER_ID": "357671764956"
}